[gd_scene load_steps=5 format=2]

[ext_resource path="res://remote_touchpad.gd" type="Script" id=1]
[ext_resource path="res://ip_label.gd" type="Script" id=2]

[sub_resource type="DynamicFontData" id=1]
font_path = "res://VarelaRound-Regular.ttf"

[sub_resource type="DynamicFont" id=2]
size = 64
font_data = SubResource( 1 )

[node name="Root" type="CenterContainer"]
anchor_right = 1.0
anchor_bottom = 1.0
__meta__ = {
"_edit_use_anchors_": false
}

[node name="RemoteTouchpad" type="Node2D" parent="."]
script = ExtResource( 1 )

[node name="Label" type="Label" parent="."]
margin_left = 886.0
margin_top = 501.0
margin_right = 1273.0
margin_bottom = 579.0
custom_fonts/font = SubResource( 2 )
text = "IP ADDRESS"
script = ExtResource( 2 )
__meta__ = {
"_edit_use_anchors_": false
}
